…
    ##     steps       date interval
    ## 289     0 2012-10-02        0
    ## 290     0 2012-10-02        5
    ## 291     0 2012-10-02       10
    ## 292     0 2012-10-02       15
    ## 293     0 2012-10-02       20
    ## 294     0 2012-10-02       25

    by_day <- group_by(Activity, date)
    steps_by_day <- summarise(by_day, total = sum(steps))
    steps_by_day

    ## # A tibble: 53 × 2
    ##          date total
    ##        <fctr> <int>
    ## 1  2012-10-02   126
    ## 2  2012-10-03 11352
    ## 3  2012-10-04 12116
    ## 4  2012-10-05 13294
    ## 5  2012-10-06 15420
    ## 6  2012-10-07 11015
    ## 7  2012-10-09 12811
    ## 8  2012-10-10  9900
    ## 9  2012-10-11 10304
    ## 10 2012-10-12 17382
    ## # ... with 43 more rows
…
